^C:\USERS\ADRIAN\DOWNLOADS\TEXTURAS\DEBUG\IMAGELOADER.OBJ|C:\USERS\ADRIAN\DOWNLOADS\TEXTURAS\DEBUG\STDAFX.OBJ|C:\USERS\ADRIAN\DOWNLOADS\TEXTURAS\DEBUG\TEXTURAS.OBJ
C:\USERS\ADRIAN\DOWNLOADS\TEXTURAS\DEBUG\TEXTURAS.EXE
C:\USERS\ADRIAN\DOWNLOADS\TEXTURAS\DEBUG\TEXTURAS.ILK
C:\USERS\ADRIAN\DOWNLOADS\TEXTURAS\DEBUG\TEXTURAS.PDB
